ula4bAndOrSomaSubOverflowSltZero/simulation/qsim/ula4b.msim.vcd
$comment
	File created using the following command:
		vcd file ula4b.msim.vcd -direction
$end
$date
	Mon Feb 05 09:46:39 2024
$end
$version
	ModelSim Version 10.1d
$end
$timescale
	1ps
$end
$scope module ula4b_vlg_vec_tst $end
$var reg 4 ! A [3:0] $end
$var reg 4 " B [3:0] $end
$var reg 3 # op [2:0] $end
$var wire 1 $ overflow $end
$var wire 1 % R [3] $end
$var wire 1 & R [2] $end
$var wire 1 ' R [1] $end
$var wire 1 ( R [0] $end
$var wire 1 ) Zero $end
$var wire 1 * sampler $end
$scope module i1 $end
$var wire 1 + gnd $end
$var wire 1 , vcc $end
$var wire 1 - unknown $end
$var tri1 1 . devclrn $end
$var tri1 1 / devpor $end
$var tri1 1 0 devoe $end
$var wire 1 1 u0|uSoma|uSoma|cout~0_combout $end
$var wire 1 2 u1|uSoma|uSoma|cout~0_combout $end
$var wire 1 3 u2|uSoma|uSoma|cout~0_combout $end
$var wire 1 4 u3|uXor|S~combout $end
$var wire 1 5 u3|uMux|S~0_combout $end
$var wire 1 6 u3|uMux|S~1_combout $end
$var wire 1 7 u0|uMux|S~1_combout $end
$var wire 1 8 u0|uMux|S~2_combout $end
$var wire 1 9 u0|uMux|S~0_combout $end
$var wire 1 : u0|uMux|S~3_combout $end
$var wire 1 ; u2|uMux|S~0_combout $end
$var wire 1 < u2|uMux|S~1_combout $end
$var wire 1 = u1|uMux|S~0_combout $end
$var wire 1 > u1|uMux|S~1_combout $end
$var wire 1 ? Zero~0_combout $end
$var wire 1 @ op~combout [2] $end
$var wire 1 A op~combout [1] $end
$var wire 1 B op~combout [0] $end
$var wire 1 C B~combout [3] $end
$var wire 1 D B~combout [2] $end
$var wire 1 E B~combout [1] $end
$var wire 1 F B~combout [0] $end
$var wire 1 G A~combout [3] $end
$var wire 1 H A~combout [2] $end
$var wire 1 I A~combout [1] $end
$var wire 1 J A~combout [0] $end
$upscope $end
$upscope $end
$enddefinitions $end
#0
$dumpvars
b100 !
b0 "
b110 #
0$
0(
0'
1&
0%
0)
x*
0+
1,
x-
1.
1/
10
11
12
13
04
05
06
07
08
19
0:
0;
1<
0=
0>
1?
0B
1A
1@
0F
0E
0D
0C
0J
0I
1H
0G
$end
#100000
b1 "
1F
0*
17
01
1:
1=
02
1>
1;
1(
0<
1'
0&
#200000
b11 "
b10 "
0F
1E
1*
07
11
0=
0:
1=
0>
0?
1>
0(
0'
1?
1'
1)
0)
#300000
b11 "
1F
0*
17
01
1:
0=
0>
1(
0'
#400000
b111 "
b101 "
b100 "
0F
0E
1D
1*
07
11
1=
0;
03
0:
0=
12
1>
1<
15
0>
1;
13
16
0(
1'
1&
0<
05
0'
1%
06
0&
0?
0%
1)
#500000
b101 "
1F
0*
17
01
1:
1=
02
1?
1>
0;
03
1(
1<
15
1'
0)
16
1&
1%
#600000
b111 "
b110 "
0F
1E
1*
07
11
0=
0:
1=
0>
1>
0(
0'
1'
#700000
b111 "
1F
0*
17
01
1:
0=
0>
1(
0'
#800000
b1111 "
b1011 "
b1001 "
b1000 "
0F
0E
0D
1C
1*
07
11
1=
1;
13
09
05
0:
0=
12
1>
0<
15
14
06
0>
0;
16
0(
1'
0&
1$
0%
1<
0'
1%
1&
#900000
b1001 "
1F
0*
17
01
1:
1=
02
1>
1;
1(
0<
1'
0&
