processador/simulation/qsim/processador.msim.vcd
$comment
	File created using the following command:
		vcd file processador.msim.vcd -direction
$end
$date
	Sat Feb 17 02:19:38 2024
$end
$version
	ModelSim Version 10.1d
$end
$timescale
	1ps
$end
$scope module processador_vlg_vec_tst $end
$var reg 1 ! clk $end
$var wire 1 " PC [1] $end
$var wire 1 # PC [0] $end
$var wire 1 $ resultado [7] $end
$var wire 1 % resultado [6] $end
$var wire 1 & resultado [5] $end
$var wire 1 ' resultado [4] $end
$var wire 1 ( resultado [3] $end
$var wire 1 ) resultado [2] $end
$var wire 1 * resultado [1] $end
$var wire 1 + resultado [0] $end
$var wire 1 , sampler $end
$scope module i1 $end
$var wire 1 - gnd $end
$var wire 1 . vcc $end
$var wire 1 / unknown $end
$var tri1 1 0 devclrn $end
$var tri1 1 1 devpor $end
$var tri1 1 2 devoe $end
$var wire 1 3 uUla|Add0~0_combout $end
$var wire 1 4 uUla|Add0~5_combout $end
$var wire 1 5 uUla|Add0~17_combout $end
$var wire 1 6 uUla|Add0~25_combout $end
$var wire 1 7 uUc|reg~regout $end
$var wire 1 8 uBr|Mux9~0_combout $end
$var wire 1 9 uBr|Mux9~1_combout $end
$var wire 1 : uBr|Mux11~0_combout $end
$var wire 1 ; uBr|Mux11~1_combout $end
$var wire 1 < uBr|Mux4~0_combout $end
$var wire 1 = uBr|Mux4~1_combout $end
$var wire 1 > uBr|Mux15~0_combout $end
$var wire 1 ? uBr|Mux15~1_combout $end
$var wire 1 @ uUc|mi~regout $end
$var wire 1 A uUc|escReg~regout $end
$var wire 1 B clk~combout $end
$var wire 1 C clk~clkctrl_outclk $end
$var wire 1 D uUc|reg~clkctrl_outclk $end
$var wire 1 E uUc|escReg~clkctrl_outclk $end
$var wire 1 F uUc|mi~clkctrl_outclk $end
$var wire 1 G uUc|escReg~feeder_combout $end
$var wire 1 H uUc|reg~feeder_combout $end
$var wire 1 I uUc|mi~feeder_combout $end
$var wire 1 J uUc|pxEst.e1~0_combout $end
$var wire 1 K uUc|pxEst.e1~regout $end
$var wire 1 L uUc|pxEst.e2~feeder_combout $end
$var wire 1 M uUc|pxEst.e2~regout $end
$var wire 1 N uUc|pxEst.e3~feeder_combout $end
$var wire 1 O uUc|pxEst.e3~regout $end
$var wire 1 P uUc|pxEst.e4~regout $end
$var wire 1 Q uUc|pxEst.e0~0_combout $end
$var wire 1 R uUc|pxEst.e0~regout $end
$var wire 1 S uUc|pc~0_combout $end
$var wire 1 T uUc|pc~regout $end
$var wire 1 U uUc|pc~clkctrl_outclk $end
$var wire 1 V uPc|pxEst.e3~feeder_combout $end
$var wire 1 W uPc|pxEst.e3~regout $end
$var wire 1 X uPc|pxEst.e0~0_combout $end
$var wire 1 Y uPc|pxEst.e0~regout $end
$var wire 1 Z uPc|pxEst.e1~0_combout $end
$var wire 1 [ uPc|pxEst.e1~regout $end
$var wire 1 \ uPc|pxEst.e2~feeder_combout $end
$var wire 1 ] uPc|pxEst.e2~regout $end
$var wire 1 ^ uPc|endereco~0_combout $end
$var wire 1 _ uPc|endereco~1_combout $end
$var wire 1 ` uUc|ula~feeder_combout $end
$var wire 1 a uUc|ula~regout $end
$var wire 1 b uUc|ula~clkctrl_outclk $end
$var wire 1 c uMi|Mux1~0_combout $end
$var wire 1 d uMi|Mux3~0_combout $end
$var wire 1 e uMi|Mux0~0_combout $end
$var wire 1 f uMi|Mux4~0_combout $end
$var wire 1 g uBr|Mux23~0_combout $end
$var wire 1 h uBr|Mux39~0_combout $end
$var wire 1 i uBr|Mux8~0_combout $end
$var wire 1 j uBr|Mux8~1_combout $end
$var wire 1 k uUla|Add0~29_combout $end
$var wire 1 l uMi|instrucao[1]~1_combout $end
$var wire 1 m uBr|sT1[0]~feeder_combout $end
$var wire 1 n uBr|Mux31~0_combout $end
$var wire 1 o uBr|Mux7~0_combout $end
$var wire 1 p uBr|Mux7~1_combout $end
$var wire 1 q uUla|Add0~2_cout $end
$var wire 1 r uUla|Add0~4 $end
$var wire 1 s uUla|Add0~6_combout $end
$var wire 1 t uUla|Add0~8_combout $end
$var wire 1 u uUla|resultado[2]~1_combout $end
$var wire 1 v uBr|Mux6~0_combout $end
$var wire 1 w uBr|sT1[1]~feeder_combout $end
$var wire 1 x uBr|Mux6~1_combout $end
$var wire 1 y uUla|Add0~7 $end
$var wire 1 z uUla|Add0~10_combout $end
$var wire 1 { uUla|Add0~12_combout $end
$var wire 1 | uBr|sT1[2]~feeder_combout $end
$var wire 1 } uBr|Mux13~0_combout $end
$var wire 1 ~ uBr|Mux13~1_combout $end
$var wire 1 !! uUla|Add0~9_combout $end
$var wire 1 "! uUla|Add0~11 $end
$var wire 1 #! uUla|Add0~14_combout $end
$var wire 1 $! uUla|Add0~16_combout $end
$var wire 1 %! uBr|Mux12~0_combout $end
$var wire 1 &! uBr|sT1[3]~feeder_combout $end
$var wire 1 '! uBr|Mux12~1_combout $end
$var wire 1 (! uUla|Add0~13_combout $end
$var wire 1 )! uUla|Add0~15 $end
$var wire 1 *! uUla|Add0~18_combout $end
$var wire 1 +! uUla|Add0~20_combout $end
$var wire 1 ,! uBr|Mux3~0_combout $end
$var wire 1 -! uBr|Mux3~1_combout $end
$var wire 1 .! uUla|Add0~19 $end
$var wire 1 /! uUla|Add0~22_combout $end
$var wire 1 0! uUla|Add0~24_combout $end
$var wire 1 1! uBr|sT1[5]~feeder_combout $end
$var wire 1 2! uBr|Mux10~0_combout $end
$var wire 1 3! uBr|Mux10~1_combout $end
$var wire 1 4! uUla|Add0~21_combout $end
$var wire 1 5! uUla|Add0~23 $end
$var wire 1 6! uUla|Add0~26_combout $end
$var wire 1 7! uUla|Add0~28_combout $end
$var wire 1 8! uBr|Mux1~0_combout $end
$var wire 1 9! uBr|Mux1~1_combout $end
$var wire 1 :! uUla|Add0~27 $end
$var wire 1 ;! uUla|Add0~30_combout $end
$var wire 1 <! uUla|Add0~32_combout $end
$var wire 1 =! uBr|Mux0~0_combout $end
$var wire 1 >! uBr|Mux0~1_combout $end
$var wire 1 ?! uBr|Mux2~0_combout $end
$var wire 1 @! uBr|Mux2~1_combout $end
$var wire 1 A! uBr|Mux5~0_combout $end
$var wire 1 B! uBr|Mux5~1_combout $end
$var wire 1 C! uBr|Mux14~0_combout $end
$var wire 1 D! uBr|Mux14~1_combout $end
$var wire 1 E! uUla|LessThan0~1_cout $end
$var wire 1 F! uUla|LessThan0~3_cout $end
$var wire 1 G! uUla|LessThan0~5_cout $end
$var wire 1 H! uUla|LessThan0~7_cout $end
$var wire 1 I! uUla|LessThan0~9_cout $end
$var wire 1 J! uUla|LessThan0~11_cout $end
$var wire 1 K! uUla|LessThan0~13_cout $end
$var wire 1 L! uUla|LessThan0~14_combout $end
$var wire 1 M! uUla|resultado[0]~0_combout $end
$var wire 1 N! uUla|Add0~3_combout $end
$var wire 1 O! uBr|sT0 [7] $end
$var wire 1 P! uBr|sT0 [6] $end
$var wire 1 Q! uBr|sT0 [5] $end
$var wire 1 R! uBr|sT0 [4] $end
$var wire 1 S! uBr|sT0 [3] $end
$var wire 1 T! uBr|sT0 [2] $end
$var wire 1 U! uBr|sT0 [1] $end
$var wire 1 V! uBr|sT0 [0] $end
$var wire 1 W! uUla|resultado [7] $end
$var wire 1 X! uUla|resultado [6] $end
$var wire 1 Y! uUla|resultado [5] $end
$var wire 1 Z! uUla|resultado [4] $end
$var wire 1 [! uUla|resultado [3] $end
$var wire 1 \! uUla|resultado [2] $end
$var wire 1 ]! uUla|resultado [1] $end
$var wire 1 ^! uUla|resultado [0] $end
$var wire 1 _! uBr|sT1 [7] $end
$var wire 1 `! uBr|sT1 [6] $end
$var wire 1 a! uBr|sT1 [5] $end
$var wire 1 b! uBr|sT1 [4] $end
$var wire 1 c! uBr|sT1 [3] $end
$var wire 1 d! uBr|sT1 [2] $end
$var wire 1 e! uBr|sT1 [1] $end
$var wire 1 f! uBr|sT1 [0] $end
$var wire 1 g! uMi|instrucao [7] $end
$var wire 1 h! uMi|instrucao [6] $end
$var wire 1 i! uMi|instrucao [5] $end
$var wire 1 j! uMi|instrucao [4] $end
$var wire 1 k! uMi|instrucao [3] $end
$var wire 1 l! uMi|instrucao [2] $end
$var wire 1 m! uMi|instrucao [1] $end
$var wire 1 n! uMi|instrucao [0] $end
$var wire 1 o! uPc|endereco [1] $end
$var wire 1 p! uPc|endereco [0] $end
$var wire 1 q! uBr|sT2 [7] $end
$var wire 1 r! uBr|sT2 [6] $end
$var wire 1 s! uBr|sT2 [5] $end
$var wire 1 t! uBr|sT2 [4] $end
$var wire 1 u! uBr|sT2 [3] $end
$var wire 1 v! uBr|sT2 [2] $end
$var wire 1 w! uBr|sT2 [1] $end
$var wire 1 x! uBr|sT2 [0] $end
$var wire 1 y! uBr|dado2 [7] $end
$var wire 1 z! uBr|dado2 [6] $end
$var wire 1 {! uBr|dado2 [5] $end
$var wire 1 |! uBr|dado2 [4] $end
$var wire 1 }! uBr|dado2 [3] $end
$var wire 1 ~! uBr|dado2 [2] $end
$var wire 1 !" uBr|dado2 [1] $end
$var wire 1 "" uBr|dado2 [0] $end
$var wire 1 #" uBr|dado1 [7] $end
$var wire 1 $" uBr|dado1 [6] $end
$var wire 1 %" uBr|dado1 [5] $end
$var wire 1 &" uBr|dado1 [4] $end
$var wire 1 '" uBr|dado1 [3] $end
$var wire 1 (" uBr|dado1 [2] $end
$var wire 1 )" uBr|dado1 [1] $end
$var wire 1 *" uBr|dado1 [0] $end
$upscope $end
$upscope $end
$enddefinitions $end
#0
$dumpvars
0!
0#
0"
0+
0*
0)
0(
0'
0&
0%
0$
x,
0-
1.
x/
10
11
12
03
04
05
06
07
08
09
0:
0;
0<
0=
0>
0?
0@
0A
0B
0C
0D
0E
0F
0G
0H
0I
1J
0K
0L
0M
0N
0O
0P
1Q
0R
1S
0T
0U
0V
0W
1X
0Y
1Z
0[
0\
0]
0^
0_
0`
0a
0b
0c
1d
0e
1f
0g
0h
0i
0j
0k
1l
0m
1n
0o
0p
0q
1r
0s
0t
1u
0v
0w
0x
0y
0z
0{
0|
0}
0~
0!!
1"!
0#!
0$!
0%!
0&!
0'!
0(!
0)!
0*!
0+!
0,!
0-!
1.!
0/!
00!
01!
02!
03!
04!
05!
06!
07!
08!
09!
1:!
0;!
0<!
0=!
0>!
0?!
0@!
0A!
0B!
0C!
0D!
0E!
1F!
0G!
1H!
0I!
1J!
0K!
0L!
0M!
0N!
0V!
0U!
0T!
0S!
0R!
0Q!
0P!
0O!
0^!
0]!
0\!
0[!
0Z!
0Y!
0X!
0W!
0f!
0e!
0d!
0c!
0b!
0a!
0`!
0_!
0n!
0m!
zl!
0k!
zj!
0i!
zh!
0g!
0p!
0o!
0x!
0w!
0v!
0u!
0t!
0s!
0r!
0q!
0""
0!"
0~!
0}!
0|!
0{!
0z!
0y!
0*"
0)"
0("
0'"
0&"
0%"
0$"
0#"
$end
#10000
1!
1B
1C
0,
1T
1R
1K
1U
0S
0J
1L
1I
1[
1Y
1\
1^
0Z
#20000
0!
0B
0C
1,
#30000
1!
1B
1C
0,
0T
1M
0K
1@
1F
0U
1N
1H
0L
0I
1m!
1n!
1k!
1o
1>
0n
1g
1p
1?
#40000
0!
0B
0C
1,
#50000
1!
1B
1C
0,
1O
0M
0@
17
1D
0F
1`
0N
0H
1*"
1""
1N!
13
0r
0N!
1s
1t
#60000
0!
0B
0C
1,
#70000
1!
1B
1C
0,
1a
1P
0O
07
0D
1b
0Q
1G
0`
1]!
1w
1*
#80000
0!
0B
0C
1,
#90000
1!
1B
1C
0,
0a
0R
0P
1A
1E
0b
1S
1J
1Q
0G
1U!
#100000
0!
0B
0C
1,
#110000
1!
1B
1C
0,
1T
1R
1K
0A
0E
1U
0S
0J
1L
1I
1p!
1]
0[
0l
0f
0d
0^
1V
1_
0\
1#
#120000
0!
0B
0C
1,
#130000
1!
1B
1C
0,
0T
1M
0K
1@
1F
0U
1N
1H
0L
0I
0m!
0n!
0k!
1C!
1v
0o
0>
1n
0g
1D!
1x
0p
0?
#140000
0!
0B
0C
1,
#150000
1!
1B
1C
0,
1O
0M
0@
17
1D
0F
1`
0N
0H
1!"
1)"
0*"
0""
14
1y
0s
1r
1N!
03
1z
0t
0N!
1{
#160000
0!
0B
0C
1,
#170000
1!
1B
1C
0,
1a
1P
0O
07
0D
1b
0Q
1G
0`
1\!
0]!
1|
0w
1)
0*
#180000
0!
0B
0C
1,
#190000
1!
1B
1C
0,
0a
0R
0P
1A
1E
0b
1S
1J
1Q
0G
1d!
#200000
0!
0B
0C
1,
#210000
1!
1B
1C
0,
1T
1R
1K
0A
0E
1U
0S
0J
1L
1I
1o!
0p!
0]
1W
1f
1c
1l
1^
0V
0X
1"
0#
#220000
0!
0B
0C
1,
#230000
1!
1B
1C
0,
0T
1M
0K
1@
1F
0U
1N
1H
0L
0I
1m!
1n!
1i!
0C!
1B!
0v
1>
0n
1h
14!
1(!
1!!
1q
1k
16
15
04
13
0D!
0x
1?
1/!
1#!
0"!
0z
0r
1;!
16!
1*!
0y
1s
10!
1$!
1)!
0#!
0{
1y
0s
1<!
17!
1+!
1"!
1z
1t
0.!
0*!
0$!
0"!
0z
0t
0)!
1#!
1{
15!
0/!
0+!
1)!
0#!
0{
1.!
1*!
1$!
0:!
06!
00!
0.!
0*!
0$!
05!
1/!
1+!
0;!
07!
15!
0/!
0+!
1:!
16!
10!
0<!
0:!
06!
00!
1;!
17!
0;!
07!
1<!
0<!
#240000
0!
0B
0C
1,
#250000
1!
1B
1C
0,
1O
0M
0@
17
1D
0F
1`
0N
0H
0!"
1("
0)"
1""
14
1z
0y
1s
1E!
03
1y
0s
1{
0z
1t
0F!
1r
1N!
1z
0t
0{
0y
1s
1{
0z
1t
0{
#260000
0!
0B
0C
1,
#270000
1!
1B
1C
0,
1a
1P
0O
07
0D
1b
0Q
1G
0`
1^!
0\!
1]!
1M!
1m
0|
1w
1+
0)
1*
#280000
0!
0B
0C
1,
#290000
1!
1B
1C
0,
0a
0R
0P
1A
1E
0b
1S
1J
1Q
0G
1w!
1x!
#300000
0!
0B
0C
1,
#310000
1!
1B
1C
0,
1T
1R
1K
0A
0E
1U
0S
0J
1L
1I
1p!
0Y
0W
0l
1e
1d
0c
0_
0^
1Z
1X
1#
#320000
0!
0B
0C
1,
#330000
1!
1B
1C
0,
0T
1M
0K
1@
1F
0U
1N
1H
0L
0I
0m!
1g!
1k!
0i!
0B!
1~
1v
0>
0t
1p
0M!
04!
0(!
0!!
0q
0k
0h
1g
06
05
04
13
1x
0?
05!
1/!
0)!
1#!
1"!
1z
1;!
1:!
16!
1.!
1*!
0s
06!
0*!
0#!
0;!
0/!
#340000
0!
0B
0C
1,
#350000
1!
1B
1C
0,
1O
0M
0@
17
1D
0F
1`
0N
0H
0("
1~!
1)"
1*"
0""
1G!
0z
1!!
1F!
1s
0E!
0r
0N!
03
0H!
1z
1y
0s
1r
1N!
1I!
0"!
0z
0y
1s
0J!
1#!
1"!
1z
1K!
0#!
1L!
1M!
#360000
0!
0B
0C
1,
#370000
1!
1B
1C
0,
1a
1P
0O
07
0D
1b
0Q
1G
0`
0]!
0w
0*
#380000
0!
0B
0C
1,
#390000
1!
1B
1C
0,
0a
0R
0P
1A
1E
0b
1S
1J
1Q
0G
0U!
1V!
#400000
0!
0B
0C
1,
#410000
1!
1B
1C
0,
1T
1R
1K
0A
0E
1U
0S
0J
1L
1I
0o!
0p!
1[
1Y
0e
1l
1\
1^
0Z
0"
0#
#420000
0!
0B
0C
1,
#430000
1!
1B
1C
0,
0T
1M
0K
1@
1F
0U
1N
1H
0L
0I
1m!
0g!
0~
0v
1o
1?
1>
1{
1t
0x
#440000
0!
0B
0C
1,
#450000
1!
1B
1C
0,
1O
0M
0@
17
1D
0F
1`
0N
0H
0~!
0)"
1""
0G!
0!!
0s
13
1H!
0z
0t
0r
0N!
0I!
0{
1s
1J!
1t
0K!
0L!
0M!
#460000
0!
0B
0C
1,
#470000
1!
1B
1C
0,
1a
1P
0O
07
0D
1b
0Q
1G
0`
0^!
1]!
0m
1w
0+
1*
#480000
0!
0B
0C
1,
#490000
1!
1B
1C
0,
0a
0R
0P
1A
1E
0b
1S
1J
1Q
0G
1U!
0V!
#500000
0!
0B
0C
1,
#510000
1!
1B
1C
0,
1T
1R
1K
0A
0E
1U
0S
0J
1L
1I
1p!
1]
0[
0l
0f
0d
0^
1V
1_
0\
1#
#520000
0!
0B
0C
1,
#530000
1!
1B
1C
0,
0T
1M
0K
1@
1F
0U
1N
1H
0L
0I
0m!
0n!
0k!
1C!
1v
0o
0>
1n
0g
1D!
1x
0p
0?
#540000
0!
0B
0C
1,
#550000
1!
1B
1C
0,
1O
0M
0@
17
1D
0F
1`
0N
0H
1!"
1)"
0*"
0""
14
1y
0s
1r
1N!
03
1z
0t
0N!
1{
#560000
0!
0B
0C
1,
#570000
1!
1B
1C
0,
1a
1P
0O
07
0D
1b
0Q
1G
0`
1\!
0]!
1|
0w
1)
0*
#580000
0!
0B
0C
1,
#590000
1!
1B
1C
0,
0a
0R
0P
1A
1E
0b
1S
1J
1Q
0G
#600000
0!
0B
0C
1,
#610000
1!
1B
1C
0,
1T
1R
1K
0A
0E
1U
0S
0J
1L
1I
1o!
0p!
0]
1W
1f
1c
1l
1^
0V
0X
1"
0#
#620000
0!
0B
0C
1,
#630000
1!
1B
1C
0,
0T
1M
0K
1@
1F
0U
1N
1H
0L
0I
1m!
1n!
1i!
0C!
1B!
0v
1?
1>
0n
1h
14!
1(!
1!!
1q
1k
16
15
04
13
0D!
0x
1/!
1#!
0"!
0z
0r
1;!
16!
1*!
0y
1s
10!
1$!
1)!
0#!
0{
1y
0s
1<!
17!
1+!
1"!
1z
1t
0.!
0*!
0$!
0"!
0z
0t
0)!
1#!
1{
15!
0/!
0+!
1)!
0#!
0{
1.!
1*!
1$!
0:!
06!
00!
0.!
0*!
0$!
05!
1/!
1+!
0;!
07!
15!
0/!
0+!
1:!
16!
10!
0<!
0:!
06!
00!
1;!
17!
0;!
07!
1<!
0<!
#640000
0!
0B
0C
1,
#650000
1!
1B
1C
0,
1O
0M
0@
17
1D
0F
1`
0N
0H
0!"
1("
0)"
1""
14
1z
0y
1s
1E!
03
1y
0s
1{
0z
1t
0F!
1r
1N!
1z
0t
0{
0y
1s
1{
0z
1t
0{
#660000
0!
0B
0C
1,
#670000
1!
1B
1C
0,
1a
1P
0O
07
0D
1b
0Q
1G
0`
1^!
0\!
1]!
1M!
1m
0|
1w
1+
0)
1*
#680000
0!
0B
0C
1,
#690000
1!
1B
1C
0,
0a
0R
0P
1A
1E
0b
1S
1J
1Q
0G
#700000
0!
0B
0C
1,
#710000
1!
1B
1C
0,
1T
1R
1K
0A
0E
1U
0S
0J
1L
1I
1p!
0Y
0W
0l
1e
1d
0c
0_
0^
1Z
1X
1#
#720000
0!
0B
0C
1,
#730000
1!
1B
1C
0,
0T
1M
0K
1@
1F
0U
1N
1H
0L
0I
0m!
1g!
1k!
0i!
0B!
1~
1v
0>
0t
1p
0M!
04!
0(!
0!!
0q
0k
0h
1g
06
05
04
13
1x
0?
05!
1/!
0)!
1#!
1"!
1z
1;!
1:!
16!
1.!
1*!
0s
06!
0*!
0#!
0;!
0/!
#740000
0!
0B
0C
1,
#750000
1!
1B
1C
0,
1O
0M
0@
17
1D
0F
1`
0N
0H
0("
1~!
1)"
1*"
0""
1G!
0z
1!!
1F!
1s
0E!
0r
0N!
03
0H!
1z
1y
0s
1r
1N!
1I!
0"!
0z
0y
1s
0J!
1#!
1"!
1z
1K!
0#!
1L!
1M!
#760000
0!
0B
0C
1,
#770000
1!
1B
1C
0,
1a
1P
0O
07
0D
1b
0Q
1G
0`
0]!
0w
0*
#780000
0!
0B
0C
1,
#790000
1!
1B
1C
0,
0a
0R
0P
1A
1E
0b
1S
1J
1Q
0G
0U!
1V!
#800000
0!
0B
0C
1,
#810000
1!
1B
1C
0,
1T
1R
1K
0A
0E
1U
0S
0J
1L
1I
0o!
0p!
1[
1Y
0e
1l
1\
1^
0Z
0"
0#
#820000
0!
0B
0C
1,
#830000
1!
1B
1C
0,
0T
1M
0K
1@
1F
0U
1N
1H
0L
0I
1m!
0g!
0~
0v
1o
1?
1>
1{
1t
0x
#840000
0!
0B
0C
1,
#850000
1!
1B
1C
0,
1O
0M
0@
17
1D
0F
1`
0N
0H
0~!
0)"
1""
0G!
0!!
0s
13
1H!
0z
0t
0r
0N!
0I!
0{
1s
1J!
1t
0K!
0L!
0M!
#860000
0!
0B
0C
1,
#870000
1!
1B
1C
0,
1a
1P
0O
07
0D
1b
0Q
1G
0`
0^!
1]!
0m
1w
0+
1*
#880000
0!
0B
0C
1,
#890000
1!
1B
1C
0,
0a
0R
0P
1A
1E
0b
1S
1J
1Q
0G
1U!
0V!
#900000
0!
0B
0C
1,
#910000
1!
1B
1C
0,
1T
1R
1K
0A
0E
1U
0S
0J
1L
1I
1p!
1]
0[
0l
0f
0d
0^
1V
1_
0\
1#
#920000
0!
0B
0C
1,
#930000
1!
1B
1C
0,
0T
1M
0K
1@
1F
0U
1N
1H
0L
0I
0m!
0n!
0k!
1C!
1v
0o
0>
1n
0g
1D!
1x
0p
0?
#940000
0!
0B
0C
1,
#950000
1!
1B
1C
0,
1O
0M
0@
17
1D
0F
1`
0N
0H
1!"
1)"
0*"
0""
14
1y
0s
1r
1N!
03
1z
0t
0N!
1{
#960000
0!
0B
0C
1,
#970000
1!
1B
1C
0,
1a
1P
0O
07
0D
1b
0Q
1G
0`
1\!
0]!
1|
0w
1)
0*
#980000
0!
0B
0C
1,
#990000
1!
1B
1C
0,
0a
0R
0P
1A
1E
0b
1S
1J
1Q
0G
